%YAML 1.1
%TAG !u! tag:unity3d.com,2011:
--- !u!114 &-1896156054587418094
MonoBehaviour:
  m_ObjectHideFlags: 0
  m_CorrespondingSourceObject: {fileID: 0}
  m_PrefabInstance: {fileID: 0}
  m_PrefabAsset: {fileID: 0}
  m_GameObject: {fileID: 5586855436087802881}
  m_Enabled: 1
  m_EditorHideFlags: 0
  m_Script: {fileID: 11500000, guid: 2c23783573a92554695b5c7a3603de9d, type: 3}
  m_Name: 
  m_EditorClassIdentifier: 
  _sooSlowToKill: 0.2
--- !u!1001 &1933457694476781886
PrefabInstance:
  m_ObjectHideFlags: 0
  serializedVersion: 2
  m_Modification:
    m_TransformParent: {fileID: 0}
    m_Modifications:
    - target: {fileID: 1521656374937543158, guid: 7775d2cd09088684881ac2690797dd4f,
        type: 3}
      propertyPath: m_LocalPosition.x
      value: 0
      objectReference: {fileID: 0}
    - target: {fileID: 1521656374937543158, guid: 7775d2cd09088684881ac2690797dd4f,
        type: 3}
      propertyPath: m_LocalPosition.y
      value: 0
      objectReference: {fileID: 0}
    - target: {fileID: 1521656374937543158, guid: 7775d2cd09088684881ac2690797dd4f,
        type: 3}
      propertyPath: m_LocalPosition.z
      value: 0
      objectReference: {fileID: 0}
    - target: {fileID: 1521656374937543158, guid: 7775d2cd09088684881ac2690797dd4f,
        type: 3}
      propertyPath: m_LocalRotation.x
      value: 0
      objectReference: {fileID: 0}
    - target: {fileID: 1521656374937543158, guid: 7775d2cd09088684881ac2690797dd4f,
        type: 3}
      propertyPath: m_LocalRotation.y
      value: 0
      objectReference: {fileID: 0}
    - target: {fileID: 1521656374937543158, guid: 7775d2cd09088684881ac2690797dd4f,
        type: 3}
      propertyPath: m_LocalRotation.z
      value: 0
      objectReference: {fileID: 0}
    - target: {fileID: 1521656374937543158, guid: 7775d2cd09088684881ac2690797dd4f,
        type: 3}
      propertyPath: m_LocalRotation.w
      value: 1
      objectReference: {fileID: 0}
    - target: {fileID: 1521656374937543158, guid: 7775d2cd09088684881ac2690797dd4f,
        type: 3}
      propertyPath: m_RootOrder
      value: 0
      objectReference: {fileID: 0}
    - target: {fileID: 1521656374937543158, guid: 7775d2cd09088684881ac2690797dd4f,
        type: 3}
      propertyPath: m_LocalEulerAnglesHint.x
      value: 0
      objectReference: {fileID: 0}
    - target: {fileID: 1521656374937543158, guid: 7775d2cd09088684881ac2690797dd4f,
        type: 3}
      propertyPath: m_LocalEulerAnglesHint.y
      value: 0
      objectReference: {fileID: 0}
    - target: {fileID: 1521656374937543158, guid: 7775d2cd09088684881ac2690797dd4f,
        type: 3}
      propertyPath: m_LocalEulerAnglesHint.z
      value: 0
      objectReference: {fileID: 0}
    - target: {fileID: 6295323009589835071, guid: 7775d2cd09088684881ac2690797dd4f,
        type: 3}
      propertyPath: m_Name
      value: TrailSegment Variant
      objectReference: {fileID: 0}
    m_RemovedComponents:
    - {fileID: 6630610120082362705, guid: 7775d2cd09088684881ac2690797dd4f, type: 3}
  m_SourcePrefab: {fileID: 100100000, guid: 7775d2cd09088684881ac2690797dd4f, type: 3}
--- !u!1 &5586855436087802881 stripped
GameObject:
  m_CorrespondingSourceObject: {fileID: 6295323009589835071, guid: 7775d2cd09088684881ac2690797dd4f,
    type: 3}
  m_PrefabInstance: {fileID: 1933457694476781886}
  m_PrefabAsset: {fileID: 0}
