%YAML 1.1
%TAG !u! tag:unity3d.com,2011:
--- !u!1001 &8817601226441919771
PrefabInstance:
  m_ObjectHideFlags: 0
  serializedVersion: 2
  m_Modification:
    m_TransformParent: {fileID: 0}
    m_Modifications:
    - target: {fileID: 8359194464616190984, guid: 4d82718df4236ff48bf3adb12a4b0cbd,
        type: 3}
      propertyPath: m_LocalPosition.x
      value: 0
      objectReference: {fileID: 0}
    - target: {fileID: 8359194464616190984, guid: 4d82718df4236ff48bf3adb12a4b0cbd,
        type: 3}
      propertyPath: m_LocalPosition.y
      value: 0
      objectReference: {fileID: 0}
    - target: {fileID: 8359194464616190984, guid: 4d82718df4236ff48bf3adb12a4b0cbd,
        type: 3}
      propertyPath: m_LocalPosition.z
      value: 0
      objectReference: {fileID: 0}
    - target: {fileID: 8359194464616190984, guid: 4d82718df4236ff48bf3adb12a4b0cbd,
        type: 3}
      propertyPath: m_LocalRotation.x
      value: 0
      objectReference: {fileID: 0}
    - target: {fileID: 8359194464616190984, guid: 4d82718df4236ff48bf3adb12a4b0cbd,
        type: 3}
      propertyPath: m_LocalRotation.y
      value: 0
      objectReference: {fileID: 0}
    - target: {fileID: 8359194464616190984, guid: 4d82718df4236ff48bf3adb12a4b0cbd,
        type: 3}
      propertyPath: m_LocalRotation.z
      value: 0
      objectReference: {fileID: 0}
    - target: {fileID: 8359194464616190984, guid: 4d82718df4236ff48bf3adb12a4b0cbd,
        type: 3}
      propertyPath: m_LocalRotation.w
      value: 1
      objectReference: {fileID: 0}
    - target: {fileID: 8359194464616190984, guid: 4d82718df4236ff48bf3adb12a4b0cbd,
        type: 3}
      propertyPath: m_RootOrder
      value: 0
      objectReference: {fileID: 0}
    - target: {fileID: 8359194464616190984, guid: 4d82718df4236ff48bf3adb12a4b0cbd,
        type: 3}
      propertyPath: m_LocalEulerAnglesHint.x
      value: 0
      objectReference: {fileID: 0}
    - target: {fileID: 8359194464616190984, guid: 4d82718df4236ff48bf3adb12a4b0cbd,
        type: 3}
      propertyPath: m_LocalEulerAnglesHint.y
      value: 0
      objectReference: {fileID: 0}
    - target: {fileID: 8359194464616190984, guid: 4d82718df4236ff48bf3adb12a4b0cbd,
        type: 3}
      propertyPath: m_LocalEulerAnglesHint.z
      value: 0
      objectReference: {fileID: 0}
    - target: {fileID: 8359194464616190984, guid: 4d82718df4236ff48bf3adb12a4b0cbd,
        type: 3}
      propertyPath: m_LocalScale.x
      value: 1
      objectReference: {fileID: 0}
    - target: {fileID: 8359194464616190984, guid: 4d82718df4236ff48bf3adb12a4b0cbd,
        type: 3}
      propertyPath: m_LocalScale.y
      value: 1
      objectReference: {fileID: 0}
    - target: {fileID: 8584002427719762777, guid: 4d82718df4236ff48bf3adb12a4b0cbd,
        type: 3}
      propertyPath: m_LocalScale.y
      value: 1
      objectReference: {fileID: 0}
    - target: {fileID: 8584002427719762777, guid: 4d82718df4236ff48bf3adb12a4b0cbd,
        type: 3}
      propertyPath: m_LocalPosition.z
      value: 0
      objectReference: {fileID: 0}
    - target: {fileID: 8584002427719762777, guid: 4d82718df4236ff48bf3adb12a4b0cbd,
        type: 3}
      propertyPath: m_LocalRotation.z
      value: 0
      objectReference: {fileID: 0}
    - target: {fileID: 8584002427719762777, guid: 4d82718df4236ff48bf3adb12a4b0cbd,
        type: 3}
      propertyPath: m_LocalRotation.w
      value: 1
      objectReference: {fileID: 0}
    - target: {fileID: 8584002427719762777, guid: 4d82718df4236ff48bf3adb12a4b0cbd,
        type: 3}
      propertyPath: m_LocalEulerAnglesHint.z
      value: 0
      objectReference: {fileID: 0}
    - target: {fileID: 8584002427719762778, guid: 4d82718df4236ff48bf3adb12a4b0cbd,
        type: 3}
      propertyPath: m_Mesh
      value: 
      objectReference: {fileID: -5738617725618908774, guid: b888af8497cf3d34187f926970a7f5f8,
        type: 3}
    - target: {fileID: 8584002427719762779, guid: 4d82718df4236ff48bf3adb12a4b0cbd,
        type: 3}
      propertyPath: m_Materials.Array.data[0]
      value: 
      objectReference: {fileID: 670224309865224971, guid: b888af8497cf3d34187f926970a7f5f8,
        type: 3}
    - target: {fileID: 8821982542658878987, guid: 4d82718df4236ff48bf3adb12a4b0cbd,
        type: 3}
      propertyPath: m_Name
      value: Wheel 1 Variant
      objectReference: {fileID: 0}
    m_RemovedComponents: []
  m_SourcePrefab: {fileID: 100100000, guid: 4d82718df4236ff48bf3adb12a4b0cbd, type: 3}
